{
    // Place your snippets for tex here. Each snippet is defined under a snippet name and has a prefix, body and
    // description. The prefix is what is used to trigger the snippet and the body will be expanded and inserted. Possible variables are:
    // $1, $2 for tab stops, $0 for the final cursor position, and ${1:label}, ${2:another} for placeholders. Placeholders with the
    // same ids are connected.
    // Example:
    "display math mode": {
        "prefix": "be",
        "body": ["\\[", "    $1", "\\]"],
        "description": "display math mode for vesti"
    },
    "infinity symbol": {
        "prefix": "oo",
        "body": ["\\infty"],
        "description": "an infinity symbol"
    },
    "set minus": {
        "prefix": "-",
        "body": ["\\setminus"],
        "description": "an infinity symbol"
    }
}
